680008360,The Beanery,91316113906,000313120,The Beanery,083432,025940277,The Beanery,083432,025940277,199,35.000,0.000,0.000,0.000,0.000,0.350,0.350,0.000,0.000,0.000,0.000,0.000,0.000,0,0,0,Con  Mingos,0414919266,0414919266,,Thebeanery@Thebeanery.com.au,http://thebeanery.com.au,5499,Yes,38332987,Y1TJ5M,eCommerce,9791395775,,No,,No,,,,,,,,,,,,,,,,,,,,,,,The Beanery,69 Church Street,,Brighton,VIC 3186,Michelle Garrod,+61 (0)3 9927 0585,Michelle.Garrod@nab.com.au,A1305,4ER00,,Con 0414919266;NAB Transact Ecommerce,
767213105,S2K,13007124503,,S2K,083923,622921496,S2K,083923,622921496,0,0.000,0.000,0.000,0.000,0.000,0.300,0.300,0.000,0.000,0.000,0.000,0.000,0.000,0,0,0,Diane  Wiesman,0408801958,0408801958,,diwiesman@mac.com,http://www.s2k.com.au,2741,No,38333266,Y1TJ5N,MOTO,8031182959,,No,,No,,,,,,,,,,,,,,,,,,,,,,,S2K,9 Lennox Street,,Moorabbin,VIC 3189,Alistair Briones,03 99111978,Alistair.Briones@nab.com.au,A1305,4ES00,,Please contact Dianne on 0359510358 or diwiesman@mac.com,
859635137,Xpress Transport,22128784216,,Xpress Transport Solutions,082343,813224597,Xpress Transport Solutions,082343,813224597,0,4.900,0.000,0.000,0.000,0.000,0.350,0.350,0.000,0.000,0.000,0.000,0.000,0.000,0,0,0,Mark  Bassal,0416340340,0416340340,,mark@xpressgroup.com.au,http://xpressgroup.com.au,4789,No,28333433,Y1TJ5O,MOTO,,,No,,No,,,,,,,,,,,,,,,,,,,,,,,Xpress Transport,Unit 15,3 Lancaster Street,Ingleburn,NSW 2565,Kevin To,+61 (0) 408 964 737,Kevin.J.To@nab.com.au,083155,XC501,,[SUB:XC5],
413108471,EXPRESSIONS AUST,50107437196,,Expressions Australia,086798,840339592,Expressions Australia,086798,840339592,500,0.000,0.450,0.450,0.350,0.350,0.350,0.350,0.000,0.000,0.000,0.000,0.000,0.000,0,0,0,Aimee  Miller,0897572188,0430369526,,aimee@expressions.com.au,www.expressions.com.au,5999,No,68333715,Y1TJ5Q,Electronic Biller,,,No,,No,,,,,,,,,,,,,,,,,,,,,,,EXPRESSIONS AUST,3/133 Bussell Highway,,Margaret River,WEA 6285,Dave Heynes,+61 (0)3 9911 1993,Dave.C.Heynes@nab.com.au,,4EV00,,,
793404351,Netregistry,13080859721,1246618,Netregistry,082338,697352072,Netregistry,082338,697352072,199,35.000,0.000,0.000,0.000,0.000,0.200,0.200,0.000,0.000,0.000,0.000,0.000,0.000,0,0,0,Fraser  Bearsley,0411028561,0411028561,,fraser.bearsley@melbourneit.com.au,https://www.netregistry.c,4816,No,28333540,Y1TJ5P,eCommerce,,,No,,No,,,,,,,,,,,,,,,,,,,,,,,Netregistry,97 Rose Street,,Chippendale,NSW 2008,Agnes Wild,0477 301 049,Agnes.X.Wild@nab.com.au,A1981,4EW00,,,
